{
  "project_info": {
    "project_number": "264772908476",
    "firebase_url": "https://imblockingyou-2512f.firebaseio.com",
    "project_id": "imblockingyou-2512f",
    "storage_bucket": "imblockingyou-2512f.appspot.com"
  },
  "client": [
    {
      "client_info": {
        "mobilesdk_app_id": "1:264772908476:android:e40ae1f39e5c01c2c5e7b9",
        "android_client_info": {
          "package_name": "com.orito_orc.imblockingyou"
        }
      },
      "oauth_client": [
        {
          "client_id": "264772908476-7bm58onqeane404sgpjt6vq9sat6qg4o.apps.googleusercontent.com",
          "client_type": 3
        }
      ],
      "api_key": [
        {
          "current_key": "AIzaSyDKdH9rN8JGtQUDQodsMIteAyzm7SuPfMc"
        }
      ],
      "services": {
        "appinvite_service": {
          "other_platform_oauth_client": [
            {
              "client_id": "264772908476-7bm58onqeane404sgpjt6vq9sat6qg4o.apps.googleusercontent.com",
              "client_type": 3
            }
          ]
        }
      }
    }
  ],
  "configuration_version": "1"
}